<?xml version="1.0" encoding="UTF-8" standalone="no"?>
<svg
   xmlns:osb="http://www.openswatchbook.org/uri/2009/osb"
   xmlns:dc="http://purl.org/dc/elements/1.1/"
   xmlns:cc="http://creativecommons.org/ns#"
   xmlns:rdf="http://www.w3.org/1999/02/22-rdf-syntax-ns#"
   xmlns:svg="http://www.w3.org/2000/svg"
   xmlns="http://www.w3.org/2000/svg"
   xmlns:xlink="http://www.w3.org/1999/xlink"
   xmlns:sodipodi="http://sodipodi.sourceforge.net/DTD/sodipodi-0.dtd"
   xmlns:inkscape="http://www.inkscape.org/namespaces/inkscape"
   inkscape:export-ydpi="96"
   inkscape:export-xdpi="96"
   inkscape:export-filename="/home/maug/GIT/mousepad/icons/128x128/org.xfce.mousepad.png"
   inkscape:version="1.0.2 (e86c870879, 2021-01-15, custom)"
   sodipodi:docname="mousepad.svg"
   viewBox="0 0 128 128"
   style="display:inline;enable-background:new"
   version="1.0"
   id="svg11300"
   height="128"
   width="128">
  <sodipodi:namedview
     inkscape:document-rotation="0"
     inkscape:guide-bbox="true"
     showguides="true"
     inkscape:lockguides="false"
     inkscape:current-layer="layer9"
     inkscape:window-maximized="1"
     inkscape:window-y="0"
     inkscape:window-x="0"
     inkscape:cy="-37.089469"
     inkscape:cx="-3.6207805"
     inkscape:zoom="1.6980119"
     showgrid="true"
     id="namedview44"
     inkscape:window-height="841"
     inkscape:window-width="1600"
     inkscape:pageshadow="2"
     inkscape:pageopacity="0"
     guidetolerance="10"
     gridtolerance="10"
     objecttolerance="10"
     borderopacity="1"
     bordercolor="#666666"
     pagecolor="#ffffff">
    <inkscape:grid
       empspacing="4"
       id="grid4761"
       type="xygrid" />
  </sodipodi:namedview>
  <title
     id="title4162">Adwaita Icon Template</title>
  <defs
     id="defs3">
    <linearGradient
       id="linearGradient955">
      <stop
         style="stop-color:#fbeb83;stop-opacity:1"
         offset="0"
         id="stop951" />
      <stop
         style="stop-color:#ffffff;stop-opacity:1"
         offset="1"
         id="stop953" />
    </linearGradient>
    <linearGradient
       osb:paint="gradient"
       id="linearGradient1020">
      <stop
         id="stop1016"
         offset="0"
         style="stop-color:#ffffff;stop-opacity:1;" />
      <stop
         id="stop1018"
         offset="1"
         style="stop-color:#ffffff;stop-opacity:0.09411765" />
    </linearGradient>
    <clipPath
       id="clipPath1058"
       clipPathUnits="userSpaceOnUse">
      <path
         inkscape:connector-curvature="0"
         id="path1060"
         d="m 60,100 14,4 v -4 z"
         style="fill:#dcb102;stroke:none;stroke-width:0.1;stroke-linecap:butt;stroke-linejoin:miter;stroke-miterlimit:4;stroke-dasharray:none;stroke-opacity:1" />
    </clipPath>
    <clipPath
       id="clipPath1058-0"
       clipPathUnits="userSpaceOnUse">
      <path
         inkscape:connector-curvature="0"
         id="path1060-9"
         d="m 60,100 14,4 v -4 z"
         style="fill:#dcb102;stroke:none;stroke-width:0.1;stroke-linecap:butt;stroke-linejoin:miter;stroke-miterlimit:4;stroke-dasharray:none;stroke-opacity:1" />
    </clipPath>
    <clipPath
       id="clipPath1114"
       clipPathUnits="userSpaceOnUse">
      <rect
         y="-184"
         x="-4"
         height="88"
         width="48"
         id="rect1116"
         style="opacity:0.40400002;fill:#fcf4c0;fill-opacity:1;stroke:none;stroke-width:0.1;stroke-linecap:butt;stroke-miterlimit:4;stroke-dasharray:none;stroke-opacity:1" />
    </clipPath>
    <clipPath
       id="clipPath1141"
       clipPathUnits="userSpaceOnUse">
      <rect
         y="-111.90909"
         x="-4.000001"
         height="8"
         width="48"
         id="rect1143"
         style="opacity:1;fill:#ad7702;fill-opacity:1;stroke:none;stroke-width:0.1;stroke-linecap:butt;stroke-miterlimit:4;stroke-dasharray:none;stroke-opacity:1" />
    </clipPath>
    <clipPath
       id="clipPath1141-1"
       clipPathUnits="userSpaceOnUse">
      <rect
         y="-111.90909"
         x="-4.000001"
         height="8"
         width="48"
         id="rect1143-8"
         style="opacity:1;fill:#ad7702;fill-opacity:1;stroke:none;stroke-width:0.1;stroke-linecap:butt;stroke-miterlimit:4;stroke-dasharray:none;stroke-opacity:1" />
    </clipPath>
    <clipPath
       id="clipPath1114-9"
       clipPathUnits="userSpaceOnUse">
      <rect
         y="-184"
         x="-4"
         height="88"
         width="48"
         id="rect1116-20"
         style="opacity:0.40400002;fill:#fcf4c0;fill-opacity:1;stroke:none;stroke-width:0.1;stroke-linecap:butt;stroke-miterlimit:4;stroke-dasharray:none;stroke-opacity:1" />
    </clipPath>
    <clipPath
       id="clipPath1141-3"
       clipPathUnits="userSpaceOnUse">
      <rect
         y="-111.90909"
         x="-4.000001"
         height="8"
         width="48"
         id="rect1143-7"
         style="opacity:1;fill:#ad7702;fill-opacity:1;stroke:none;stroke-width:0.1;stroke-linecap:butt;stroke-miterlimit:4;stroke-dasharray:none;stroke-opacity:1" />
    </clipPath>
    <clipPath
       id="clipPath958"
       clipPathUnits="userSpaceOnUse">
      <path
         d="m 74.5,107 a 9,9 0 0 1 -8.994816,9 9,9 0 0 1 -9.005178,-8.98963 9,9 0 0 1 8.984443,-9.010357 9,9 0 0 1 9.015527,8.979257"
         sodipodi:open="true"
         sodipodi:end="6.2808815"
         sodipodi:start="0"
         sodipodi:ry="9"
         sodipodi:rx="9"
         sodipodi:cy="107"
         sodipodi:cx="65.5"
         sodipodi:type="arc"
         id="path960"
         style="opacity:1;fill:#fbeb83;fill-opacity:1;stroke:none;stroke-width:6.00000048;stroke-linecap:butt;stroke-miterlimit:4;stroke-dasharray:none;stroke-opacity:1" />
    </clipPath>
    <clipPath
       clipPathUnits="userSpaceOnUse"
       id="clipPath2213">
      <rect
         style="display:inline;opacity:1;vector-effect:none;fill:none;fill-opacity:1;stroke:#000000;stroke-width:1;stroke-linecap:butt;stroke-linejoin:miter;stroke-miterlimit:4;stroke-dasharray:none;stroke-dashoffset:0;stroke-opacity:1;marker:none;marker-start:none;marker-mid:none;marker-end:none;paint-order:normal;enable-background:new"
         id="rect2215"
         width="16"
         height="56"
         x="160"
         y="-188"
         rx="8"
         ry="8" />
    </clipPath>
    <clipPath
       clipPathUnits="userSpaceOnUse"
       id="clipPath878">
      <rect
         style="display:inline;opacity:1;vector-effect:none;fill:none;fill-opacity:1;stroke:#000000;stroke-width:1;stroke-linecap:butt;stroke-linejoin:miter;stroke-miterlimit:4;stroke-dasharray:none;stroke-dashoffset:0;stroke-opacity:1;marker:none;marker-start:none;marker-mid:none;marker-end:none;paint-order:normal;enable-background:new"
         id="rect876"
         width="16"
         height="56"
         x="160"
         y="-188"
         rx="8"
         ry="8" />
    </clipPath>
    <clipPath
       clipPathUnits="userSpaceOnUse"
       id="clipPath882">
      <rect
         style="display:inline;opacity:1;vector-effect:none;fill:none;fill-opacity:1;stroke:#000000;stroke-width:1;stroke-linecap:butt;stroke-linejoin:miter;stroke-miterlimit:4;stroke-dasharray:none;stroke-dashoffset:0;stroke-opacity:1;marker:none;marker-start:none;marker-mid:none;marker-end:none;paint-order:normal;enable-background:new"
         id="rect880"
         width="16"
         height="56"
         x="160"
         y="-188"
         rx="8"
         ry="8" />
    </clipPath>
    <clipPath
       clipPathUnits="userSpaceOnUse"
       id="clipPath886">
      <rect
         style="display:inline;opacity:1;vector-effect:none;fill:none;fill-opacity:1;stroke:#000000;stroke-width:1;stroke-linecap:butt;stroke-linejoin:miter;stroke-miterlimit:4;stroke-dasharray:none;stroke-dashoffset:0;stroke-opacity:1;marker:none;marker-start:none;marker-mid:none;marker-end:none;paint-order:normal;enable-background:new"
         id="rect884"
         width="16"
         height="56"
         x="160"
         y="-188"
         rx="8"
         ry="8" />
    </clipPath>
    <clipPath
       clipPathUnits="userSpaceOnUse"
       id="clipPath890">
      <rect
         style="display:inline;opacity:1;vector-effect:none;fill:none;fill-opacity:1;stroke:#000000;stroke-width:1;stroke-linecap:butt;stroke-linejoin:miter;stroke-miterlimit:4;stroke-dasharray:none;stroke-dashoffset:0;stroke-opacity:1;marker:none;marker-start:none;marker-mid:none;marker-end:none;paint-order:normal;enable-background:new"
         id="rect888"
         width="16"
         height="56"
         x="160"
         y="-188"
         rx="8"
         ry="8" />
    </clipPath>
    <clipPath
       clipPathUnits="userSpaceOnUse"
       id="clipPath894">
      <rect
         style="display:inline;opacity:1;vector-effect:none;fill:none;fill-opacity:1;stroke:#000000;stroke-width:1;stroke-linecap:butt;stroke-linejoin:miter;stroke-miterlimit:4;stroke-dasharray:none;stroke-dashoffset:0;stroke-opacity:1;marker:none;marker-start:none;marker-mid:none;marker-end:none;paint-order:normal;enable-background:new"
         id="rect892"
         width="16"
         height="56"
         x="160"
         y="-188"
         rx="8"
         ry="8" />
    </clipPath>
    <linearGradient
       xlink:href="#linearGradient1038"
       id="linearGradient1159"
       x1="27.99999"
       y1="-276"
       x2="115.99999"
       y2="-276"
       gradientUnits="userSpaceOnUse"
       gradientTransform="translate(-135.76113,3.38966)" />
    <linearGradient
       id="linearGradient1038">
      <stop
         id="stop1026"
         offset="0"
         style="stop-color:#bcc5ca;stop-opacity:1" />
      <stop
         style="stop-color:#ffffff;stop-opacity:1"
         offset="0.04545454"
         id="stop1028" />
      <stop
         style="stop-color:#d2d8dc;stop-opacity:1"
         offset="0.09090909"
         id="stop1030" />
      <stop
         style="stop-color:#d2d8dc;stop-opacity:1"
         offset="0.90909088"
         id="stop1032" />
      <stop
         id="stop1034"
         offset="0.95454544"
         style="stop-color:#ffffff;stop-opacity:1" />
      <stop
         id="stop1036"
         offset="1"
         style="stop-color:#bcc5ca;stop-opacity:1" />
    </linearGradient>
    <linearGradient
       xlink:href="#linearGradient1351-3"
       id="linearGradient1130"
       gradientUnits="userSpaceOnUse"
       gradientTransform="matrix(0.25,0,0,0.25,180,83)"
       x1="344"
       y1="76"
       x2="340"
       y2="72" />
    <linearGradient
       id="linearGradient1351-3">
      <stop
         style="stop-color:#d5d3cf;stop-opacity:1"
         offset="0"
         id="stop1347" />
      <stop
         style="stop-color:#ffffff;stop-opacity:1"
         offset="1"
         id="stop1349-6" />
    </linearGradient>
    <clipPath
       clipPathUnits="userSpaceOnUse"
       id="clipPath1609-7">
      <path
         id="path1611-5"
         d="m 252,116 28,-28 v -8 h -36 v 36 z"
         style="fill:#e74747;stroke:none;stroke-width:0.25px;stroke-linecap:butt;stroke-linejoin:miter;stroke-opacity:1"
         inkscape:connector-curvature="0" />
    </clipPath>
    <clipPath
       clipPathUnits="userSpaceOnUse"
       id="clipPath1062">
      <rect
         clip-path="none"
         ry="8"
         rx="8"
         y="-116"
         x="-108"
         height="108"
         width="88"
         id="rect1064"
         style="opacity:1;vector-effect:none;fill:#f6f5f4;fill-opacity:1;stroke:none;stroke-width:13.71876526;stroke-linecap:butt;stroke-linejoin:miter;stroke-miterlimit:4;stroke-dasharray:none;stroke-dashoffset:0;stroke-opacity:1;marker:none;marker-start:none;marker-mid:none;marker-end:none;paint-order:normal"
         transform="scale(-1)" />
    </clipPath>
    <linearGradient
       xlink:href="#linearGradient1005"
       id="linearGradient1103"
       gradientUnits="userSpaceOnUse"
       x1="128.81717"
       y1="-97.698288"
       x2="158.51802"
       y2="-127.39915"
       gradientTransform="matrix(0.07621224,-0.44419723,0.44419725,-0.07621223,77.725794,331.83807)" />
    <linearGradient
       id="linearGradient1005">
      <stop
         id="stop1001"
         offset="0"
         style="stop-color:#d0bb8e;stop-opacity:1" />
      <stop
         id="stop1003"
         offset="1"
         style="stop-color:#ffffff;stop-opacity:1" />
    </linearGradient>
    <linearGradient
       y2="-127.39915"
       x2="158.51802"
       y1="-97.698288"
       x1="128.81717"
       gradientUnits="userSpaceOnUse"
       id="linearGradient2006"
       xlink:href="#linearGradient955"
       inkscape:collect="always" />
    <clipPath
       id="clipPath1003"
       clipPathUnits="userSpaceOnUse">
      <g
         style="fill:#000000;fill-opacity:0.5;stroke:none"
         id="g1019"
         transform="matrix(-0.37475031,0,0,-0.37475031,204.60318,-102.98633)">
        <path
           style="fill:#020202;fill-opacity:1;fill-rule:evenodd;stroke:#000002;stroke-width:1.00000003pt;stroke-linecap:butt;stroke-linejoin:miter;stroke-opacity:1"
           id="path1005"
           transform="translate(4.86564,17.0296)"
           d="m 143.756,326.774 c 0.538,-0.09 13.953,6.991 22.97,9.438 16.079,4.109 30.756,16.476 37.85,23.58 0.526,0.608 6.093,-4.168 11.919,-3.824 7.958,0.482 32.582,7.406 35.872,2.691 1.995,-2.768 1.852,-6.164 4.341,-7.555 1.34,-0.375 -4.981,-11.936 1.737,-15.64 4.79,-2.394 8.849,11.009 10.079,12.511 0.551,0.672 3.474,0.836 3.128,-0.695 -0.375,-1.663 -5.103,-14.524 0.695,-16.682 9.417,-3.729 7.748,16.456 7.993,17.03 0.521,1.222 32.797,2.164 34.754,16.682 1.132,7.99 -25.858,18.317 -28.498,20.157 -2.639,1.84 -2.419,4.783 -1.39,6.604 1.183,1.975 9.046,8.641 7.994,11.816 -0.723,1.834 -15.398,-4.888 -16.335,-3.475 -2.137,2.699 10.683,9.455 6.256,14.249 -1.755,1.148 -21.947,-8.454 -21.896,-8.341 -0.542,0.206 -28.532,5.113 -50.046,-1.391 -0.758,-0.214 -13.808,12.606 -15.292,12.165 -2.029,-0.744 2.991,-11.15 2.433,-13.207 -0.912,-1.146 -9.251,4.653 -9.731,1.738 -0.574,-3.831 7.318,-8.235 6.951,-10.774 -2.035,-14.424 0.909,-22.847 5.908,-29.888 1.667,-2.592 -19.592,-18.646 -34.983,-24.982 -15.39,-6.336 -23.624,-11.706 -22.709,-12.207 z"
           inkscape:connector-curvature="0" />
        <path
           style="fill:#ffffff;fill-opacity:1;fill-rule:evenodd;stroke:#000000;stroke-width:0.60000001pt;stroke-linecap:butt;stroke-linejoin:miter;stroke-opacity:1"
           id="path1007"
           d="m 286.934,392.031 c -0.169,-0.59 10.503,-7.045 12.048,-5.561 2.781,1.008 -11.95,6.31 -12.048,5.561 z"
           inkscape:connector-curvature="0" />
        <path
           style="fill:#ffffff;fill-opacity:1;fill-rule:evenodd;stroke:#000000;stroke-width:0.60000001pt;stroke-linecap:butt;stroke-linejoin:miter;stroke-opacity:1"
           id="path1009"
           d="m 292.031,397.901 c -0.94,-0.568 6.389,-9.114 8.187,-8.187 2.625,2.608 -8.31,8.39 -8.187,8.187 z"
           inkscape:connector-curvature="0" />
        <path
           style="fill:#020202;fill-opacity:1;fill-rule:evenodd;stroke:#000000;stroke-width:0.60000001pt;stroke-linecap:butt;stroke-linejoin:miter;stroke-opacity:1"
           id="path1011"
           d="m 320.916,358.358 c -0.891,-0.737 -7.878,10.287 -6.333,11.431 0.929,0.695 6.731,-11.038 6.333,-11.431 z"
           inkscape:connector-curvature="0" />
        <ellipse
           style="fill:#ffffff;fill-opacity:1;fill-rule:evenodd;stroke:#000000;stroke-width:0.60000001pt;stroke-linecap:butt;stroke-linejoin:miter;stroke-opacity:1"
           id="ellipse1013"
           transform="matrix(0.9253,0,0,0.933788,22.0283,24.352)"
           ry="3.398196"
           rx="3.012037"
           cy="374.58655"
           cx="288.86475" />
        <path
           style="fill:#020202;fill-opacity:1;fill-rule:evenodd;stroke:#000000;stroke-width:0.60000001pt;stroke-linecap:butt;stroke-linejoin:miter;stroke-opacity:1"
           id="path1015"
           transform="translate(-8.0321,-1.54463)"
           d="m 320.916,358.358 c -0.441,-0.512 -2.781,11.368 -1.699,11.894 0.929,0.695 2.547,-11.276 1.699,-11.894 z"
           inkscape:connector-curvature="0" />
        <path
           style="fill:#ffffff;fill-opacity:1;fill-rule:evenodd;stroke:#000000;stroke-width:0.60000001pt;stroke-linecap:butt;stroke-linejoin:miter;stroke-opacity:1"
           id="path1017"
           transform="translate(-38.3069,14.983)"
           d="m 321.366,357.908 c -2.771,1.959 1.521,13.045 8.58,6.572 -5.546,0.163 -7.396,-1.461 -8.58,-6.572 z"
           inkscape:connector-curvature="0" />
      </g>
    </clipPath>
    <clipPath
       clipPathUnits="userSpaceOnUse"
       id="clipPath1609-7-2">
      <path
         id="path1611-5-9"
         d="m 252,116 28,-28 v -8 h -36 v 36 z"
         style="fill:#e74747;stroke:none;stroke-width:0.25px;stroke-linecap:butt;stroke-linejoin:miter;stroke-opacity:1"
         inkscape:connector-curvature="0" />
    </clipPath>
    <linearGradient
       xlink:href="#linearGradient1038"
       id="linearGradient1159-1"
       x1="27.99999"
       y1="-276"
       x2="115.99999"
       y2="-276"
       gradientUnits="userSpaceOnUse"
       gradientTransform="translate(-376.62611,56.776174)" />
    <clipPath
       clipPathUnits="userSpaceOnUse"
       id="clipPath1609-7-3">
      <path
         id="path1611-5-0"
         d="m 252,116 28,-28 v -8 h -36 v 36 z"
         style="fill:#e74747;stroke:none;stroke-width:0.25px;stroke-linecap:butt;stroke-linejoin:miter;stroke-opacity:1"
         inkscape:connector-curvature="0" />
    </clipPath>
    <linearGradient
       xlink:href="#linearGradient1038"
       id="linearGradient1159-7"
       x1="27.99999"
       y1="-276"
       x2="115.99999"
       y2="-276"
       gradientUnits="userSpaceOnUse"
       gradientTransform="translate(-117.60451,144.98617)" />
    <clipPath
       id="clipPath1519"
       clipPathUnits="userSpaceOnUse">
      <g
         style="display:inline;fill:#000000;fill-opacity:0.5;stroke:none;enable-background:new"
         id="g1535"
         transform="matrix(-0.20186955,0,0,-0.20186955,25.022028,-111.52946)">
        <path
           style="fill:#020202;fill-opacity:1;fill-rule:evenodd;stroke:#000002;stroke-width:1.00000003pt;stroke-linecap:butt;stroke-linejoin:miter;stroke-opacity:1"
           id="path1521"
           transform="translate(4.86564,17.0296)"
           d="m 143.756,326.774 c 0.538,-0.09 13.953,6.991 22.97,9.438 16.079,4.109 30.756,16.476 37.85,23.58 0.526,0.608 6.093,-4.168 11.919,-3.824 7.958,0.482 32.582,7.406 35.872,2.691 1.995,-2.768 1.852,-6.164 4.341,-7.555 1.34,-0.375 -4.981,-11.936 1.737,-15.64 4.79,-2.394 8.849,11.009 10.079,12.511 0.551,0.672 3.474,0.836 3.128,-0.695 -0.375,-1.663 -5.103,-14.524 0.695,-16.682 9.417,-3.729 7.748,16.456 7.993,17.03 0.521,1.222 32.797,2.164 34.754,16.682 1.132,7.99 -25.858,18.317 -28.498,20.157 -2.639,1.84 -2.419,4.783 -1.39,6.604 1.183,1.975 9.046,8.641 7.994,11.816 -0.723,1.834 -15.398,-4.888 -16.335,-3.475 -2.137,2.699 10.683,9.455 6.256,14.249 -1.755,1.148 -21.947,-8.454 -21.896,-8.341 -0.542,0.206 -28.532,5.113 -50.046,-1.391 -0.758,-0.214 -13.808,12.606 -15.292,12.165 -2.029,-0.744 2.991,-11.15 2.433,-13.207 -0.912,-1.146 -9.251,4.653 -9.731,1.738 -0.574,-3.831 7.318,-8.235 6.951,-10.774 -2.035,-14.424 0.909,-22.847 5.908,-29.888 1.667,-2.592 -19.592,-18.646 -34.983,-24.982 -15.39,-6.336 -23.624,-11.706 -22.709,-12.207 z"
           inkscape:connector-curvature="0" />
        <path
           style="fill:#ffffff;fill-opacity:1;fill-rule:evenodd;stroke:#000000;stroke-width:0.60000001pt;stroke-linecap:butt;stroke-linejoin:miter;stroke-opacity:1"
           id="path1523"
           d="m 286.934,392.031 c -0.169,-0.59 10.503,-7.045 12.048,-5.561 2.781,1.008 -11.95,6.31 -12.048,5.561 z"
           inkscape:connector-curvature="0" />
        <path
           style="fill:#ffffff;fill-opacity:1;fill-rule:evenodd;stroke:#000000;stroke-width:0.60000001pt;stroke-linecap:butt;stroke-linejoin:miter;stroke-opacity:1"
           id="path1525"
           d="m 292.031,397.901 c -0.94,-0.568 6.389,-9.114 8.187,-8.187 2.625,2.608 -8.31,8.39 -8.187,8.187 z"
           inkscape:connector-curvature="0" />
        <path
           style="fill:#020202;fill-opacity:1;fill-rule:evenodd;stroke:#000000;stroke-width:0.60000001pt;stroke-linecap:butt;stroke-linejoin:miter;stroke-opacity:1"
           id="path1527"
           d="m 320.916,358.358 c -0.891,-0.737 -7.878,10.287 -6.333,11.431 0.929,0.695 6.731,-11.038 6.333,-11.431 z"
           inkscape:connector-curvature="0" />
        <ellipse
           style="fill:#ffffff;fill-opacity:1;fill-rule:evenodd;stroke:#000000;stroke-width:0.60000001pt;stroke-linecap:butt;stroke-linejoin:miter;stroke-opacity:1"
           id="ellipse1529"
           transform="matrix(0.9253,0,0,0.933788,22.0283,24.352)"
           ry="3.398196"
           rx="3.012037"
           cy="374.58655"
           cx="288.86475" />
        <path
           style="fill:#020202;fill-opacity:1;fill-rule:evenodd;stroke:#000000;stroke-width:0.60000001pt;stroke-linecap:butt;stroke-linejoin:miter;stroke-opacity:1"
           id="path1531"
           transform="translate(-8.0321,-1.54463)"
           d="m 320.916,358.358 c -0.441,-0.512 -2.781,11.368 -1.699,11.894 0.929,0.695 2.547,-11.276 1.699,-11.894 z"
           inkscape:connector-curvature="0" />
        <path
           style="fill:#ffffff;fill-opacity:1;fill-rule:evenodd;stroke:#000000;stroke-width:0.60000001pt;stroke-linecap:butt;stroke-linejoin:miter;stroke-opacity:1"
           id="path1533"
           transform="translate(-38.3069,14.983)"
           d="m 321.366,357.908 c -2.771,1.959 1.521,13.045 8.58,6.572 -5.546,0.163 -7.396,-1.461 -8.58,-6.572 z"
           inkscape:connector-curvature="0" />
      </g>
    </clipPath>
    <clipPath
       id="clipPath1537"
       clipPathUnits="userSpaceOnUse">
      <g
         style="display:inline;fill:#000000;fill-opacity:0.5;stroke:none;enable-background:new"
         id="g1553"
         transform="matrix(-0.20186955,0,0,-0.20186955,25.022028,-111.52946)">
        <path
           style="fill:#020202;fill-opacity:1;fill-rule:evenodd;stroke:#000002;stroke-width:1.00000003pt;stroke-linecap:butt;stroke-linejoin:miter;stroke-opacity:1"
           id="path1539"
           transform="translate(4.86564,17.0296)"
           d="m 143.756,326.774 c 0.538,-0.09 13.953,6.991 22.97,9.438 16.079,4.109 30.756,16.476 37.85,23.58 0.526,0.608 6.093,-4.168 11.919,-3.824 7.958,0.482 32.582,7.406 35.872,2.691 1.995,-2.768 1.852,-6.164 4.341,-7.555 1.34,-0.375 -4.981,-11.936 1.737,-15.64 4.79,-2.394 8.849,11.009 10.079,12.511 0.551,0.672 3.474,0.836 3.128,-0.695 -0.375,-1.663 -5.103,-14.524 0.695,-16.682 9.417,-3.729 7.748,16.456 7.993,17.03 0.521,1.222 32.797,2.164 34.754,16.682 1.132,7.99 -25.858,18.317 -28.498,20.157 -2.639,1.84 -2.419,4.783 -1.39,6.604 1.183,1.975 9.046,8.641 7.994,11.816 -0.723,1.834 -15.398,-4.888 -16.335,-3.475 -2.137,2.699 10.683,9.455 6.256,14.249 -1.755,1.148 -21.947,-8.454 -21.896,-8.341 -0.542,0.206 -28.532,5.113 -50.046,-1.391 -0.758,-0.214 -13.808,12.606 -15.292,12.165 -2.029,-0.744 2.991,-11.15 2.433,-13.207 -0.912,-1.146 -9.251,4.653 -9.731,1.738 -0.574,-3.831 7.318,-8.235 6.951,-10.774 -2.035,-14.424 0.909,-22.847 5.908,-29.888 1.667,-2.592 -19.592,-18.646 -34.983,-24.982 -15.39,-6.336 -23.624,-11.706 -22.709,-12.207 z"
           inkscape:connector-curvature="0" />
        <path
           style="fill:#ffffff;fill-opacity:1;fill-rule:evenodd;stroke:#000000;stroke-width:0.60000001pt;stroke-linecap:butt;stroke-linejoin:miter;stroke-opacity:1"
           id="path1541"
           d="m 286.934,392.031 c -0.169,-0.59 10.503,-7.045 12.048,-5.561 2.781,1.008 -11.95,6.31 -12.048,5.561 z"
           inkscape:connector-curvature="0" />
        <path
           style="fill:#ffffff;fill-opacity:1;fill-rule:evenodd;stroke:#000000;stroke-width:0.60000001pt;stroke-linecap:butt;stroke-linejoin:miter;stroke-opacity:1"
           id="path1543"
           d="m 292.031,397.901 c -0.94,-0.568 6.389,-9.114 8.187,-8.187 2.625,2.608 -8.31,8.39 -8.187,8.187 z"
           inkscape:connector-curvature="0" />
        <path
           style="fill:#020202;fill-opacity:1;fill-rule:evenodd;stroke:#000000;stroke-width:0.60000001pt;stroke-linecap:butt;stroke-linejoin:miter;stroke-opacity:1"
           id="path1545"
           d="m 320.916,358.358 c -0.891,-0.737 -7.878,10.287 -6.333,11.431 0.929,0.695 6.731,-11.038 6.333,-11.431 z"
           inkscape:connector-curvature="0" />
        <ellipse
           style="fill:#ffffff;fill-opacity:1;fill-rule:evenodd;stroke:#000000;stroke-width:0.60000001pt;stroke-linecap:butt;stroke-linejoin:miter;stroke-opacity:1"
           id="ellipse1547"
           transform="matrix(0.9253,0,0,0.933788,22.0283,24.352)"
           ry="3.398196"
           rx="3.012037"
           cy="374.58655"
           cx="288.86475" />
        <path
           style="fill:#020202;fill-opacity:1;fill-rule:evenodd;stroke:#000000;stroke-width:0.60000001pt;stroke-linecap:butt;stroke-linejoin:miter;stroke-opacity:1"
           id="path1549"
           transform="translate(-8.0321,-1.54463)"
           d="m 320.916,358.358 c -0.441,-0.512 -2.781,11.368 -1.699,11.894 0.929,0.695 2.547,-11.276 1.699,-11.894 z"
           inkscape:connector-curvature="0" />
        <path
           style="fill:#ffffff;fill-opacity:1;fill-rule:evenodd;stroke:#000000;stroke-width:0.60000001pt;stroke-linecap:butt;stroke-linejoin:miter;stroke-opacity:1"
           id="path1551"
           transform="translate(-38.3069,14.983)"
           d="m 321.366,357.908 c -2.771,1.959 1.521,13.045 8.58,6.572 -5.546,0.163 -7.396,-1.461 -8.58,-6.572 z"
           inkscape:connector-curvature="0" />
      </g>
    </clipPath>
    <clipPath
       id="clipPath1157"
       clipPathUnits="userSpaceOnUse">
      <g
         style="fill:#000000;fill-opacity:0.5;stroke:none"
         id="g1173"
         transform="matrix(-0.15438761,0,0,-0.15438761,176.50565,-23.1371)">
        <path
           transform="translate(4.86564,17.0296)"
           style="fill:#020202;fill-opacity:1;fill-rule:evenodd;stroke:#000002;stroke-width:1.00000003pt;stroke-linecap:butt;stroke-linejoin:miter;stroke-opacity:1"
           id="path1159"
           d="m 143.756,326.774 c 0.538,-0.09 13.953,6.991 22.97,9.438 16.079,4.109 30.756,16.476 37.85,23.58 0.526,0.608 6.093,-4.168 11.919,-3.824 7.958,0.482 32.582,7.406 35.872,2.691 1.995,-2.768 1.852,-6.164 4.341,-7.555 1.34,-0.375 -4.981,-11.936 1.737,-15.64 4.79,-2.394 8.849,11.009 10.079,12.511 0.551,0.672 3.474,0.836 3.128,-0.695 -0.375,-1.663 -5.103,-14.524 0.695,-16.682 9.417,-3.729 7.748,16.456 7.993,17.03 0.521,1.222 32.797,2.164 34.754,16.682 1.132,7.99 -25.858,18.317 -28.498,20.157 -2.639,1.84 -2.419,4.783 -1.39,6.604 1.183,1.975 9.046,8.641 7.994,11.816 -0.723,1.834 -15.398,-4.888 -16.335,-3.475 -2.137,2.699 10.683,9.455 6.256,14.249 -1.755,1.148 -21.947,-8.454 -21.896,-8.341 -0.542,0.206 -28.532,5.113 -50.046,-1.391 -0.758,-0.214 -13.808,12.606 -15.292,12.165 -2.029,-0.744 2.991,-11.15 2.433,-13.207 -0.912,-1.146 -9.251,4.653 -9.731,1.738 -0.574,-3.831 7.318,-8.235 6.951,-10.774 -2.035,-14.424 0.909,-22.847 5.908,-29.888 1.667,-2.592 -19.592,-18.646 -34.983,-24.982 -15.39,-6.336 -23.624,-11.706 -22.709,-12.207 z"
           inkscape:connector-curvature="0" />
        <path
           style="fill:#ffffff;fill-opacity:1;fill-rule:evenodd;stroke:#000000;stroke-width:0.60000001pt;stroke-linecap:butt;stroke-linejoin:miter;stroke-opacity:1"
           id="path1161"
           d="m 286.934,392.031 c -0.169,-0.59 10.503,-7.045 12.048,-5.561 2.781,1.008 -11.95,6.31 -12.048,5.561 z"
           inkscape:connector-curvature="0" />
        <path
           style="fill:#ffffff;fill-opacity:1;fill-rule:evenodd;stroke:#000000;stroke-width:0.60000001pt;stroke-linecap:butt;stroke-linejoin:miter;stroke-opacity:1"
           id="path1163"
           d="m 292.031,397.901 c -0.94,-0.568 6.389,-9.114 8.187,-8.187 2.625,2.608 -8.31,8.39 -8.187,8.187 z"
           inkscape:connector-curvature="0" />
        <path
           style="fill:#020202;fill-opacity:1;fill-rule:evenodd;stroke:#000000;stroke-width:0.60000001pt;stroke-linecap:butt;stroke-linejoin:miter;stroke-opacity:1"
           id="path1165"
           d="m 320.916,358.358 c -0.891,-0.737 -7.878,10.287 -6.333,11.431 0.929,0.695 6.731,-11.038 6.333,-11.431 z"
           inkscape:connector-curvature="0" />
        <ellipse
           transform="matrix(0.9253,0,0,0.933788,22.0283,24.352)"
           style="fill:#ffffff;fill-opacity:1;fill-rule:evenodd;stroke:#000000;stroke-width:0.60000001pt;stroke-linecap:butt;stroke-linejoin:miter;stroke-opacity:1"
           id="ellipse1167"
           ry="3.398196"
           rx="3.012037"
           cy="374.58655"
           cx="288.86475" />
        <path
           style="fill:#020202;fill-opacity:1;fill-rule:evenodd;stroke:#000000;stroke-width:0.60000001pt;stroke-linecap:butt;stroke-linejoin:miter;stroke-opacity:1"
           id="path1169"
           transform="translate(-8.0321,-1.54463)"
           d="m 320.916,358.358 c -0.441,-0.512 -2.781,11.368 -1.699,11.894 0.929,0.695 2.547,-11.276 1.699,-11.894 z"
           inkscape:connector-curvature="0" />
        <path
           transform="translate(-38.3069,14.983)"
           style="fill:#ffffff;fill-opacity:1;fill-rule:evenodd;stroke:#000000;stroke-width:0.60000001pt;stroke-linecap:butt;stroke-linejoin:miter;stroke-opacity:1"
           id="path1171"
           d="m 321.366,357.908 c -2.771,1.959 1.521,13.045 8.58,6.572 -5.546,0.163 -7.396,-1.461 -8.58,-6.572 z"
           inkscape:connector-curvature="0" />
      </g>
    </clipPath>
    <clipPath
       id="clipPath1175"
       clipPathUnits="userSpaceOnUse">
      <g
         style="fill:#000000;fill-opacity:0.5;stroke:none"
         id="g1191"
         transform="matrix(-0.15438761,0,0,-0.15438761,176.50565,-23.1371)">
        <path
           transform="translate(4.86564,17.0296)"
           style="fill:#020202;fill-opacity:1;fill-rule:evenodd;stroke:#000002;stroke-width:1.00000003pt;stroke-linecap:butt;stroke-linejoin:miter;stroke-opacity:1"
           id="path1177"
           d="m 143.756,326.774 c 0.538,-0.09 13.953,6.991 22.97,9.438 16.079,4.109 30.756,16.476 37.85,23.58 0.526,0.608 6.093,-4.168 11.919,-3.824 7.958,0.482 32.582,7.406 35.872,2.691 1.995,-2.768 1.852,-6.164 4.341,-7.555 1.34,-0.375 -4.981,-11.936 1.737,-15.64 4.79,-2.394 8.849,11.009 10.079,12.511 0.551,0.672 3.474,0.836 3.128,-0.695 -0.375,-1.663 -5.103,-14.524 0.695,-16.682 9.417,-3.729 7.748,16.456 7.993,17.03 0.521,1.222 32.797,2.164 34.754,16.682 1.132,7.99 -25.858,18.317 -28.498,20.157 -2.639,1.84 -2.419,4.783 -1.39,6.604 1.183,1.975 9.046,8.641 7.994,11.816 -0.723,1.834 -15.398,-4.888 -16.335,-3.475 -2.137,2.699 10.683,9.455 6.256,14.249 -1.755,1.148 -21.947,-8.454 -21.896,-8.341 -0.542,0.206 -28.532,5.113 -50.046,-1.391 -0.758,-0.214 -13.808,12.606 -15.292,12.165 -2.029,-0.744 2.991,-11.15 2.433,-13.207 -0.912,-1.146 -9.251,4.653 -9.731,1.738 -0.574,-3.831 7.318,-8.235 6.951,-10.774 -2.035,-14.424 0.909,-22.847 5.908,-29.888 1.667,-2.592 -19.592,-18.646 -34.983,-24.982 -15.39,-6.336 -23.624,-11.706 -22.709,-12.207 z"
           inkscape:connector-curvature="0" />
        <path
           style="fill:#ffffff;fill-opacity:1;fill-rule:evenodd;stroke:#000000;stroke-width:0.60000001pt;stroke-linecap:butt;stroke-linejoin:miter;stroke-opacity:1"
           id="path1179"
           d="m 286.934,392.031 c -0.169,-0.59 10.503,-7.045 12.048,-5.561 2.781,1.008 -11.95,6.31 -12.048,5.561 z"
           inkscape:connector-curvature="0" />
        <path
           style="fill:#ffffff;fill-opacity:1;fill-rule:evenodd;stroke:#000000;stroke-width:0.60000001pt;stroke-linecap:butt;stroke-linejoin:miter;stroke-opacity:1"
           id="path1181"
           d="m 292.031,397.901 c -0.94,-0.568 6.389,-9.114 8.187,-8.187 2.625,2.608 -8.31,8.39 -8.187,8.187 z"
           inkscape:connector-curvature="0" />
        <path
           style="fill:#020202;fill-opacity:1;fill-rule:evenodd;stroke:#000000;stroke-width:0.60000001pt;stroke-linecap:butt;stroke-linejoin:miter;stroke-opacity:1"
           id="path1183"
           d="m 320.916,358.358 c -0.891,-0.737 -7.878,10.287 -6.333,11.431 0.929,0.695 6.731,-11.038 6.333,-11.431 z"
           inkscape:connector-curvature="0" />
        <ellipse
           transform="matrix(0.9253,0,0,0.933788,22.0283,24.352)"
           style="fill:#ffffff;fill-opacity:1;fill-rule:evenodd;stroke:#000000;stroke-width:0.60000001pt;stroke-linecap:butt;stroke-linejoin:miter;stroke-opacity:1"
           id="ellipse1185"
           ry="3.398196"
           rx="3.012037"
           cy="374.58655"
           cx="288.86475" />
        <path
           style="fill:#020202;fill-opacity:1;fill-rule:evenodd;stroke:#000000;stroke-width:0.60000001pt;stroke-linecap:butt;stroke-linejoin:miter;stroke-opacity:1"
           id="path1187"
           transform="translate(-8.0321,-1.54463)"
           d="m 320.916,358.358 c -0.441,-0.512 -2.781,11.368 -1.699,11.894 0.929,0.695 2.547,-11.276 1.699,-11.894 z"
           inkscape:connector-curvature="0" />
        <path
           transform="translate(-38.3069,14.983)"
           style="fill:#ffffff;fill-opacity:1;fill-rule:evenodd;stroke:#000000;stroke-width:0.60000001pt;stroke-linecap:butt;stroke-linejoin:miter;stroke-opacity:1"
           id="path1189"
           d="m 321.366,357.908 c -2.771,1.959 1.521,13.045 8.58,6.572 -5.546,0.163 -7.396,-1.461 -8.58,-6.572 z"
           inkscape:connector-curvature="0" />
      </g>
    </clipPath>
    <clipPath
       id="clipPath1157-7"
       clipPathUnits="userSpaceOnUse">
      <g
         style="fill:#000000;fill-opacity:0.5;stroke:none"
         id="g1173-1"
         transform="matrix(-0.15438761,0,0,-0.15438761,176.50565,-23.1371)">
        <path
           transform="translate(4.86564,17.0296)"
           style="fill:#020202;fill-opacity:1;fill-rule:evenodd;stroke:#000002;stroke-width:1.00000003pt;stroke-linecap:butt;stroke-linejoin:miter;stroke-opacity:1"
           id="path1159-7"
           d="m 143.756,326.774 c 0.538,-0.09 13.953,6.991 22.97,9.438 16.079,4.109 30.756,16.476 37.85,23.58 0.526,0.608 6.093,-4.168 11.919,-3.824 7.958,0.482 32.582,7.406 35.872,2.691 1.995,-2.768 1.852,-6.164 4.341,-7.555 1.34,-0.375 -4.981,-11.936 1.737,-15.64 4.79,-2.394 8.849,11.009 10.079,12.511 0.551,0.672 3.474,0.836 3.128,-0.695 -0.375,-1.663 -5.103,-14.524 0.695,-16.682 9.417,-3.729 7.748,16.456 7.993,17.03 0.521,1.222 32.797,2.164 34.754,16.682 1.132,7.99 -25.858,18.317 -28.498,20.157 -2.639,1.84 -2.419,4.783 -1.39,6.604 1.183,1.975 9.046,8.641 7.994,11.816 -0.723,1.834 -15.398,-4.888 -16.335,-3.475 -2.137,2.699 10.683,9.455 6.256,14.249 -1.755,1.148 -21.947,-8.454 -21.896,-8.341 -0.542,0.206 -28.532,5.113 -50.046,-1.391 -0.758,-0.214 -13.808,12.606 -15.292,12.165 -2.029,-0.744 2.991,-11.15 2.433,-13.207 -0.912,-1.146 -9.251,4.653 -9.731,1.738 -0.574,-3.831 7.318,-8.235 6.951,-10.774 -2.035,-14.424 0.909,-22.847 5.908,-29.888 1.667,-2.592 -19.592,-18.646 -34.983,-24.982 -15.39,-6.336 -23.624,-11.706 -22.709,-12.207 z"
           inkscape:connector-curvature="0" />
        <path
           style="fill:#ffffff;fill-opacity:1;fill-rule:evenodd;stroke:#000000;stroke-width:0.60000001pt;stroke-linecap:butt;stroke-linejoin:miter;stroke-opacity:1"
           id="path1161-2"
           d="m 286.934,392.031 c -0.169,-0.59 10.503,-7.045 12.048,-5.561 2.781,1.008 -11.95,6.31 -12.048,5.561 z"
           inkscape:connector-curvature="0" />
        <path
           style="fill:#ffffff;fill-opacity:1;fill-rule:evenodd;stroke:#000000;stroke-width:0.60000001pt;stroke-linecap:butt;stroke-linejoin:miter;stroke-opacity:1"
           id="path1163-7"
           d="m 292.031,397.901 c -0.94,-0.568 6.389,-9.114 8.187,-8.187 2.625,2.608 -8.31,8.39 -8.187,8.187 z"
           inkscape:connector-curvature="0" />
        <path
           style="fill:#020202;fill-opacity:1;fill-rule:evenodd;stroke:#000000;stroke-width:0.60000001pt;stroke-linecap:butt;stroke-linejoin:miter;stroke-opacity:1"
           id="path1165-2"
           d="m 320.916,358.358 c -0.891,-0.737 -7.878,10.287 -6.333,11.431 0.929,0.695 6.731,-11.038 6.333,-11.431 z"
           inkscape:connector-curvature="0" />
        <ellipse
           transform="matrix(0.9253,0,0,0.933788,22.0283,24.352)"
           style="fill:#ffffff;fill-opacity:1;fill-rule:evenodd;stroke:#000000;stroke-width:0.60000001pt;stroke-linecap:butt;stroke-linejoin:miter;stroke-opacity:1"
           id="ellipse1167-2"
           ry="3.398196"
           rx="3.012037"
           cy="374.58655"
           cx="288.86475" />
        <path
           style="fill:#020202;fill-opacity:1;fill-rule:evenodd;stroke:#000000;stroke-width:0.60000001pt;stroke-linecap:butt;stroke-linejoin:miter;stroke-opacity:1"
           id="path1169-6"
           transform="translate(-8.0321,-1.54463)"
           d="m 320.916,358.358 c -0.441,-0.512 -2.781,11.368 -1.699,11.894 0.929,0.695 2.547,-11.276 1.699,-11.894 z"
           inkscape:connector-curvature="0" />
        <path
           transform="translate(-38.3069,14.983)"
           style="fill:#ffffff;fill-opacity:1;fill-rule:evenodd;stroke:#000000;stroke-width:0.60000001pt;stroke-linecap:butt;stroke-linejoin:miter;stroke-opacity:1"
           id="path1171-1"
           d="m 321.366,357.908 c -2.771,1.959 1.521,13.045 8.58,6.572 -5.546,0.163 -7.396,-1.461 -8.58,-6.572 z"
           inkscape:connector-curvature="0" />
      </g>
    </clipPath>
    <clipPath
       id="clipPath1175-0"
       clipPathUnits="userSpaceOnUse">
      <g
         style="fill:#000000;fill-opacity:0.5;stroke:none"
         id="g1191-6"
         transform="matrix(-0.15438761,0,0,-0.15438761,176.50565,-23.1371)">
        <path
           transform="translate(4.86564,17.0296)"
           style="fill:#020202;fill-opacity:1;fill-rule:evenodd;stroke:#000002;stroke-width:1.00000003pt;stroke-linecap:butt;stroke-linejoin:miter;stroke-opacity:1"
           id="path1177-1"
           d="m 143.756,326.774 c 0.538,-0.09 13.953,6.991 22.97,9.438 16.079,4.109 30.756,16.476 37.85,23.58 0.526,0.608 6.093,-4.168 11.919,-3.824 7.958,0.482 32.582,7.406 35.872,2.691 1.995,-2.768 1.852,-6.164 4.341,-7.555 1.34,-0.375 -4.981,-11.936 1.737,-15.64 4.79,-2.394 8.849,11.009 10.079,12.511 0.551,0.672 3.474,0.836 3.128,-0.695 -0.375,-1.663 -5.103,-14.524 0.695,-16.682 9.417,-3.729 7.748,16.456 7.993,17.03 0.521,1.222 32.797,2.164 34.754,16.682 1.132,7.99 -25.858,18.317 -28.498,20.157 -2.639,1.84 -2.419,4.783 -1.39,6.604 1.183,1.975 9.046,8.641 7.994,11.816 -0.723,1.834 -15.398,-4.888 -16.335,-3.475 -2.137,2.699 10.683,9.455 6.256,14.249 -1.755,1.148 -21.947,-8.454 -21.896,-8.341 -0.542,0.206 -28.532,5.113 -50.046,-1.391 -0.758,-0.214 -13.808,12.606 -15.292,12.165 -2.029,-0.744 2.991,-11.15 2.433,-13.207 -0.912,-1.146 -9.251,4.653 -9.731,1.738 -0.574,-3.831 7.318,-8.235 6.951,-10.774 -2.035,-14.424 0.909,-22.847 5.908,-29.888 1.667,-2.592 -19.592,-18.646 -34.983,-24.982 -15.39,-6.336 -23.624,-11.706 -22.709,-12.207 z"
           inkscape:connector-curvature="0" />
        <path
           style="fill:#ffffff;fill-opacity:1;fill-rule:evenodd;stroke:#000000;stroke-width:0.60000001pt;stroke-linecap:butt;stroke-linejoin:miter;stroke-opacity:1"
           id="path1179-5"
           d="m 286.934,392.031 c -0.169,-0.59 10.503,-7.045 12.048,-5.561 2.781,1.008 -11.95,6.31 -12.048,5.561 z"
           inkscape:connector-curvature="0" />
        <path
           style="fill:#ffffff;fill-opacity:1;fill-rule:evenodd;stroke:#000000;stroke-width:0.60000001pt;stroke-linecap:butt;stroke-linejoin:miter;stroke-opacity:1"
           id="path1181-9"
           d="m 292.031,397.901 c -0.94,-0.568 6.389,-9.114 8.187,-8.187 2.625,2.608 -8.31,8.39 -8.187,8.187 z"
           inkscape:connector-curvature="0" />
        <path
           style="fill:#020202;fill-opacity:1;fill-rule:evenodd;stroke:#000000;stroke-width:0.60000001pt;stroke-linecap:butt;stroke-linejoin:miter;stroke-opacity:1"
           id="path1183-4"
           d="m 320.916,358.358 c -0.891,-0.737 -7.878,10.287 -6.333,11.431 0.929,0.695 6.731,-11.038 6.333,-11.431 z"
           inkscape:connector-curvature="0" />
        <ellipse
           transform="matrix(0.9253,0,0,0.933788,22.0283,24.352)"
           style="fill:#ffffff;fill-opacity:1;fill-rule:evenodd;stroke:#000000;stroke-width:0.60000001pt;stroke-linecap:butt;stroke-linejoin:miter;stroke-opacity:1"
           id="ellipse1185-9"
           ry="3.398196"
           rx="3.012037"
           cy="374.58655"
           cx="288.86475" />
        <path
           style="fill:#020202;fill-opacity:1;fill-rule:evenodd;stroke:#000000;stroke-width:0.60000001pt;stroke-linecap:butt;stroke-linejoin:miter;stroke-opacity:1"
           id="path1187-0"
           transform="translate(-8.0321,-1.54463)"
           d="m 320.916,358.358 c -0.441,-0.512 -2.781,11.368 -1.699,11.894 0.929,0.695 2.547,-11.276 1.699,-11.894 z"
           inkscape:connector-curvature="0" />
        <path
           transform="translate(-38.3069,14.983)"
           style="fill:#ffffff;fill-opacity:1;fill-rule:evenodd;stroke:#000000;stroke-width:0.60000001pt;stroke-linecap:butt;stroke-linejoin:miter;stroke-opacity:1"
           id="path1189-9"
           d="m 321.366,357.908 c -2.771,1.959 1.521,13.045 8.58,6.572 -5.546,0.163 -7.396,-1.461 -8.58,-6.572 z"
           inkscape:connector-curvature="0" />
      </g>
    </clipPath>
    <clipPath
       clipPathUnits="userSpaceOnUse"
       id="clipPath1609-7-1">
      <path
         id="path1611-5-5"
         d="m 252,116 28,-28 v -8 h -36 v 36 z"
         style="fill:#e74747;stroke:none;stroke-width:0.25px;stroke-linecap:butt;stroke-linejoin:miter;stroke-opacity:1"
         inkscape:connector-curvature="0" />
    </clipPath>
    <linearGradient
       xlink:href="#linearGradient1038"
       id="linearGradient1159-9"
       x1="27.99999"
       y1="-276"
       x2="115.99999"
       y2="-276"
       gradientUnits="userSpaceOnUse"
       gradientTransform="translate(5.4238084,-97.809031)" />
    <clipPath
       clipPathUnits="userSpaceOnUse"
       id="clipPath1609-7-1-4">
      <path
         id="path1611-5-5-4"
         d="m 252,116 28,-28 v -8 h -36 v 36 z"
         style="fill:#e74747;stroke:none;stroke-width:0.25px;stroke-linecap:butt;stroke-linejoin:miter;stroke-opacity:1"
         inkscape:connector-curvature="0" />
    </clipPath>
    <linearGradient
       y2="72"
       x2="340"
       y1="76"
       x1="344"
       gradientTransform="matrix(0.25,0,0,0.25,180,83)"
       gradientUnits="userSpaceOnUse"
       id="linearGradient1665"
       xlink:href="#linearGradient1351-3"
       inkscape:collect="always" />
    <clipPath
       id="clipPath1766"
       clipPathUnits="userSpaceOnUse">
      <g
         style="display:inline;opacity:1;fill:#000000;fill-opacity:0.5;stroke:none;enable-background:new"
         id="g1782"
         transform="matrix(0.30226794,0,0,0.30226794,179.03019,202.11193)">
        <path
           style="fill:#020202;fill-opacity:1;fill-rule:evenodd;stroke:#000002;stroke-width:1.00000003pt;stroke-linecap:butt;stroke-linejoin:miter;stroke-opacity:1"
           id="path1768"
           d="m 148.62164,343.8036 c 0.538,-0.09 13.953,6.991 22.97,9.438 16.079,4.109 30.756,16.476 37.85,23.58 0.526,0.608 6.093,-4.168 11.919,-3.824 7.958,0.482 32.582,7.406 35.872,2.691 1.995,-2.768 1.852,-6.164 4.341,-7.555 1.34,-0.375 -4.981,-11.936 1.737,-15.64 4.79,-2.394 8.849,11.009 10.079,12.511 0.551,0.672 3.474,0.836 3.128,-0.695 -0.375,-1.663 -5.103,-14.524 0.695,-16.682 9.417,-3.729 7.748,16.456 7.993,17.03 0.521,1.222 32.797,2.164 34.754,16.682 1.132,7.99 -25.858,18.317 -28.498,20.157 -2.639,1.84 -2.419,4.783 -1.39,6.604 1.183,1.975 9.046,8.641 7.994,11.816 -0.723,1.834 -15.398,-4.888 -16.335,-3.475 -2.137,2.699 10.683,9.455 6.256,14.249 -1.755,1.148 -21.947,-8.454 -21.896,-8.341 -0.542,0.206 -28.532,5.113 -50.046,-1.391 -0.758,-0.214 -13.808,12.606 -15.292,12.165 -2.029,-0.744 2.991,-11.15 2.433,-13.207 -0.912,-1.146 -9.251,4.653 -9.731,1.738 -0.574,-3.831 7.318,-8.235 6.951,-10.774 -2.035,-14.424 0.909,-22.847 5.908,-29.888 1.667,-2.592 -19.592,-18.646 -34.983,-24.982 -15.39,-6.336 -23.624,-11.706 -22.709,-12.207 z"
           inkscape:connector-curvature="0" />
        <path
           style="fill:#ffffff;fill-opacity:1;fill-rule:evenodd;stroke:#000000;stroke-width:0.60000001pt;stroke-linecap:butt;stroke-linejoin:miter;stroke-opacity:1"
           id="path1770"
           d="m 286.934,392.031 c -0.169,-0.59 10.503,-7.045 12.048,-5.561 2.781,1.008 -11.95,6.31 -12.048,5.561 z"
           inkscape:connector-curvature="0" />
        <path
           style="fill:#ffffff;fill-opacity:1;fill-rule:evenodd;stroke:#000000;stroke-width:0.60000001pt;stroke-linecap:butt;stroke-linejoin:miter;stroke-opacity:1"
           id="path1772"
           d="m 292.031,397.901 c -0.94,-0.568 6.389,-9.114 8.187,-8.187 2.625,2.608 -8.31,8.39 -8.187,8.187 z"
           inkscape:connector-curvature="0" />
        <path
           style="fill:#020202;fill-opacity:1;fill-rule:evenodd;stroke:#000000;stroke-width:0.60000001pt;stroke-linecap:butt;stroke-linejoin:miter;stroke-opacity:1"
           id="path1774"
           d="m 320.916,358.358 c -0.891,-0.737 -7.878,10.287 -6.333,11.431 0.929,0.695 6.731,-11.038 6.333,-11.431 z"
           inkscape:connector-curvature="0" />
        <ellipse
           transform="matrix(0.9253,0,0,0.933788,22.0283,24.352)"
           style="fill:#ffffff;fill-opacity:1;fill-rule:evenodd;stroke:#000000;stroke-width:0.60000001pt;stroke-linecap:butt;stroke-linejoin:miter;stroke-opacity:1"
           id="ellipse1776"
           ry="3.398196"
           rx="3.012037"
           cy="374.58655"
           cx="288.86475" />
        <path
           style="fill:#020202;fill-opacity:1;fill-rule:evenodd;stroke:#000000;stroke-width:0.60000001pt;stroke-linecap:butt;stroke-linejoin:miter;stroke-opacity:1"
           id="path1778"
           transform="translate(-8.0321,-1.54463)"
           d="m 320.916,358.358 c -0.441,-0.512 -2.781,11.368 -1.699,11.894 0.929,0.695 2.547,-11.276 1.699,-11.894 z"
           inkscape:connector-curvature="0" />
        <path
           transform="translate(-38.3069,14.983)"
           style="fill:#ffffff;fill-opacity:1;fill-rule:evenodd;stroke:#000000;stroke-width:0.60000001pt;stroke-linecap:butt;stroke-linejoin:miter;stroke-opacity:1"
           id="path1780"
           d="m 321.366,357.908 c -2.771,1.959 1.521,13.045 8.58,6.572 -5.546,0.163 -7.396,-1.461 -8.58,-6.572 z"
           inkscape:connector-curvature="0" />
      </g>
    </clipPath>
    <linearGradient
       gradientUnits="userSpaceOnUse"
       y2="-22.041"
       y1="-0.040987"
       x2="-50.450001"
       x1="-50.450001"
       id="a">
      <stop
         id="stop4"
         offset="0"
         stop-color="#0bbaf4" />
      <stop
         id="stop6"
         offset=".071429"
         stop-color="#0bbaf4" />
      <stop
         id="stop8"
         offset=".21429"
         stop-color="#81dffe" />
      <stop
         id="stop10"
         offset=".46429"
         stop-color="#0bbaf4" />
      <stop
         id="stop12"
         offset="1"
         stop-color="#0bbaf4" />
    </linearGradient>
    <clipPath
       id="clipPath1247"
       clipPathUnits="userSpaceOnUse">
      <g
         style="display:inline;opacity:1;fill:#000000;fill-opacity:0.5;stroke:none;enable-background:new"
         id="g1263"
         transform="matrix(-0.30455913,0,0,-0.30455913,20.474138,-81.583656)">
        <path
           style="fill:#263742;fill-opacity:1;fill-rule:evenodd;stroke:#263742;stroke-width:1.00000003pt;stroke-linecap:butt;stroke-linejoin:miter;stroke-opacity:1"
           id="path1249"
           d="m 148.62164,343.8036 c 0.538,-0.09 13.953,6.991 22.97,9.438 16.079,4.109 30.756,16.476 37.85,23.58 0.526,0.608 6.093,-4.168 11.919,-3.824 7.958,0.482 32.582,7.406 35.872,2.691 1.995,-2.768 1.852,-6.164 4.341,-7.555 1.34,-0.375 -4.981,-11.936 1.737,-15.64 4.79,-2.394 8.849,11.009 10.079,12.511 0.551,0.672 3.474,0.836 3.128,-0.695 -0.375,-1.663 -5.103,-14.524 0.695,-16.682 9.417,-3.729 7.748,16.456 7.993,17.03 0.521,1.222 32.797,2.164 34.754,16.682 1.132,7.99 -25.858,18.317 -28.498,20.157 -2.639,1.84 -2.419,4.783 -1.39,6.604 1.183,1.975 9.046,8.641 7.994,11.816 -0.723,1.834 -15.398,-4.888 -16.335,-3.475 -2.137,2.699 10.683,9.455 6.256,14.249 -1.755,1.148 -21.947,-8.454 -21.896,-8.341 -0.542,0.206 -28.532,5.113 -50.046,-1.391 -0.758,-0.214 -13.808,12.606 -15.292,12.165 -2.029,-0.744 2.991,-11.15 2.433,-13.207 -0.912,-1.146 -9.251,4.653 -9.731,1.738 -0.574,-3.831 7.318,-8.235 6.951,-10.774 -2.035,-14.424 0.909,-22.847 5.908,-29.888 1.667,-2.592 -19.592,-18.646 -34.983,-24.982 -15.39,-6.336 -23.624,-11.706 -22.709,-12.207 z"
           inkscape:connector-curvature="0" />
        <path
           style="fill:#ffffff;fill-opacity:1;fill-rule:evenodd;stroke:#263742;stroke-width:0.60000001pt;stroke-linecap:butt;stroke-linejoin:miter;stroke-opacity:1"
           id="path1251"
           d="m 286.934,392.031 c -0.169,-0.59 10.503,-7.045 12.048,-5.561 2.781,1.008 -11.95,6.31 -12.048,5.561 z"
           inkscape:connector-curvature="0" />
        <path
           style="fill:#ffffff;fill-opacity:1;fill-rule:evenodd;stroke:#263742;stroke-width:0.60000001pt;stroke-linecap:butt;stroke-linejoin:miter;stroke-opacity:1"
           id="path1253"
           d="m 292.031,397.901 c -0.94,-0.568 6.389,-9.114 8.187,-8.187 2.625,2.608 -8.31,8.39 -8.187,8.187 z"
           inkscape:connector-curvature="0" />
        <path
           style="fill:#263742;fill-opacity:1;fill-rule:evenodd;stroke:#263742;stroke-width:0.60000001pt;stroke-linecap:butt;stroke-linejoin:miter;stroke-opacity:1"
           id="path1255"
           d="m 320.916,358.358 c -0.891,-0.737 -7.878,10.287 -6.333,11.431 0.929,0.695 6.731,-11.038 6.333,-11.431 z"
           inkscape:connector-curvature="0" />
        <ellipse
           transform="matrix(0.9253,0,0,0.933788,22.0283,24.352)"
           style="fill:#ffffff;fill-opacity:1;fill-rule:evenodd;stroke:#263742;stroke-width:0.60000001pt;stroke-linecap:butt;stroke-linejoin:miter;stroke-opacity:1"
           id="ellipse1257"
           ry="3.398196"
           rx="3.012037"
           cy="374.58655"
           cx="288.86475" />
        <path
           style="fill:#263742;fill-opacity:1;fill-rule:evenodd;stroke:#263742;stroke-width:0.60000001pt;stroke-linecap:butt;stroke-linejoin:miter;stroke-opacity:1"
           id="path1259"
           transform="translate(-8.0321,-1.54463)"
           d="m 320.916,358.358 c -0.441,-0.512 -2.781,11.368 -1.699,11.894 0.929,0.695 2.547,-11.276 1.699,-11.894 z"
           inkscape:connector-curvature="0" />
        <path
           transform="translate(-38.3069,14.983)"
           style="fill:#ffffff;fill-opacity:1;fill-rule:evenodd;stroke:#263742;stroke-width:0.60000001pt;stroke-linecap:butt;stroke-linejoin:miter;stroke-opacity:1"
           id="path1261"
           d="m 321.366,357.908 c -2.771,1.959 1.521,13.045 8.58,6.572 -5.546,0.163 -7.396,-1.461 -8.58,-6.572 z"
           inkscape:connector-curvature="0" />
      </g>
    </clipPath>
    <clipPath
       id="clipPath1265"
       clipPathUnits="userSpaceOnUse">
      <g
         style="display:inline;opacity:1;fill:#000000;fill-opacity:0.5;stroke:none;enable-background:new"
         id="g1281"
         transform="matrix(-0.30455913,0,0,-0.30455913,20.474138,-81.583656)">
        <path
           style="fill:#263742;fill-opacity:1;fill-rule:evenodd;stroke:#263742;stroke-width:1.00000003pt;stroke-linecap:butt;stroke-linejoin:miter;stroke-opacity:1"
           id="path1267"
           d="m 148.62164,343.8036 c 0.538,-0.09 13.953,6.991 22.97,9.438 16.079,4.109 30.756,16.476 37.85,23.58 0.526,0.608 6.093,-4.168 11.919,-3.824 7.958,0.482 32.582,7.406 35.872,2.691 1.995,-2.768 1.852,-6.164 4.341,-7.555 1.34,-0.375 -4.981,-11.936 1.737,-15.64 4.79,-2.394 8.849,11.009 10.079,12.511 0.551,0.672 3.474,0.836 3.128,-0.695 -0.375,-1.663 -5.103,-14.524 0.695,-16.682 9.417,-3.729 7.748,16.456 7.993,17.03 0.521,1.222 32.797,2.164 34.754,16.682 1.132,7.99 -25.858,18.317 -28.498,20.157 -2.639,1.84 -2.419,4.783 -1.39,6.604 1.183,1.975 9.046,8.641 7.994,11.816 -0.723,1.834 -15.398,-4.888 -16.335,-3.475 -2.137,2.699 10.683,9.455 6.256,14.249 -1.755,1.148 -21.947,-8.454 -21.896,-8.341 -0.542,0.206 -28.532,5.113 -50.046,-1.391 -0.758,-0.214 -13.808,12.606 -15.292,12.165 -2.029,-0.744 2.991,-11.15 2.433,-13.207 -0.912,-1.146 -9.251,4.653 -9.731,1.738 -0.574,-3.831 7.318,-8.235 6.951,-10.774 -2.035,-14.424 0.909,-22.847 5.908,-29.888 1.667,-2.592 -19.592,-18.646 -34.983,-24.982 -15.39,-6.336 -23.624,-11.706 -22.709,-12.207 z"
           inkscape:connector-curvature="0" />
        <path
           style="fill:#ffffff;fill-opacity:1;fill-rule:evenodd;stroke:#263742;stroke-width:0.60000001pt;stroke-linecap:butt;stroke-linejoin:miter;stroke-opacity:1"
           id="path1269"
           d="m 286.934,392.031 c -0.169,-0.59 10.503,-7.045 12.048,-5.561 2.781,1.008 -11.95,6.31 -12.048,5.561 z"
           inkscape:connector-curvature="0" />
        <path
           style="fill:#ffffff;fill-opacity:1;fill-rule:evenodd;stroke:#263742;stroke-width:0.60000001pt;stroke-linecap:butt;stroke-linejoin:miter;stroke-opacity:1"
           id="path1271"
           d="m 292.031,397.901 c -0.94,-0.568 6.389,-9.114 8.187,-8.187 2.625,2.608 -8.31,8.39 -8.187,8.187 z"
           inkscape:connector-curvature="0" />
        <path
           style="fill:#263742;fill-opacity:1;fill-rule:evenodd;stroke:#263742;stroke-width:0.60000001pt;stroke-linecap:butt;stroke-linejoin:miter;stroke-opacity:1"
           id="path1273"
           d="m 320.916,358.358 c -0.891,-0.737 -7.878,10.287 -6.333,11.431 0.929,0.695 6.731,-11.038 6.333,-11.431 z"
           inkscape:connector-curvature="0" />
        <ellipse
           transform="matrix(0.9253,0,0,0.933788,22.0283,24.352)"
           style="fill:#ffffff;fill-opacity:1;fill-rule:evenodd;stroke:#263742;stroke-width:0.60000001pt;stroke-linecap:butt;stroke-linejoin:miter;stroke-opacity:1"
           id="ellipse1275"
           ry="3.398196"
           rx="3.012037"
           cy="374.58655"
           cx="288.86475" />
        <path
           style="fill:#263742;fill-opacity:1;fill-rule:evenodd;stroke:#263742;stroke-width:0.60000001pt;stroke-linecap:butt;stroke-linejoin:miter;stroke-opacity:1"
           id="path1277"
           transform="translate(-8.0321,-1.54463)"
           d="m 320.916,358.358 c -0.441,-0.512 -2.781,11.368 -1.699,11.894 0.929,0.695 2.547,-11.276 1.699,-11.894 z"
           inkscape:connector-curvature="0" />
        <path
           transform="translate(-38.3069,14.983)"
           style="fill:#ffffff;fill-opacity:1;fill-rule:evenodd;stroke:#263742;stroke-width:0.60000001pt;stroke-linecap:butt;stroke-linejoin:miter;stroke-opacity:1"
           id="path1279"
           d="m 321.366,357.908 c -2.771,1.959 1.521,13.045 8.58,6.572 -5.546,0.163 -7.396,-1.461 -8.58,-6.572 z"
           inkscape:connector-curvature="0" />
      </g>
    </clipPath>
    <clipPath
       id="clipPath1283"
       clipPathUnits="userSpaceOnUse">
      <g
         style="display:inline;opacity:1;fill:#000000;fill-opacity:0.5;stroke:none;enable-background:new"
         id="g1299"
         transform="matrix(-0.30455913,0,0,-0.30455913,20.474138,-81.583656)">
        <path
           style="fill:#263742;fill-opacity:1;fill-rule:evenodd;stroke:#263742;stroke-width:1.00000003pt;stroke-linecap:butt;stroke-linejoin:miter;stroke-opacity:1"
           id="path1285"
           d="m 148.62164,343.8036 c 0.538,-0.09 13.953,6.991 22.97,9.438 16.079,4.109 30.756,16.476 37.85,23.58 0.526,0.608 6.093,-4.168 11.919,-3.824 7.958,0.482 32.582,7.406 35.872,2.691 1.995,-2.768 1.852,-6.164 4.341,-7.555 1.34,-0.375 -4.981,-11.936 1.737,-15.64 4.79,-2.394 8.849,11.009 10.079,12.511 0.551,0.672 3.474,0.836 3.128,-0.695 -0.375,-1.663 -5.103,-14.524 0.695,-16.682 9.417,-3.729 7.748,16.456 7.993,17.03 0.521,1.222 32.797,2.164 34.754,16.682 1.132,7.99 -25.858,18.317 -28.498,20.157 -2.639,1.84 -2.419,4.783 -1.39,6.604 1.183,1.975 9.046,8.641 7.994,11.816 -0.723,1.834 -15.398,-4.888 -16.335,-3.475 -2.137,2.699 10.683,9.455 6.256,14.249 -1.755,1.148 -21.947,-8.454 -21.896,-8.341 -0.542,0.206 -28.532,5.113 -50.046,-1.391 -0.758,-0.214 -13.808,12.606 -15.292,12.165 -2.029,-0.744 2.991,-11.15 2.433,-13.207 -0.912,-1.146 -9.251,4.653 -9.731,1.738 -0.574,-3.831 7.318,-8.235 6.951,-10.774 -2.035,-14.424 0.909,-22.847 5.908,-29.888 1.667,-2.592 -19.592,-18.646 -34.983,-24.982 -15.39,-6.336 -23.624,-11.706 -22.709,-12.207 z"
           inkscape:connector-curvature="0" />
        <path
           style="fill:#ffffff;fill-opacity:1;fill-rule:evenodd;stroke:#263742;stroke-width:0.60000001pt;stroke-linecap:butt;stroke-linejoin:miter;stroke-opacity:1"
           id="path1287"
           d="m 286.934,392.031 c -0.169,-0.59 10.503,-7.045 12.048,-5.561 2.781,1.008 -11.95,6.31 -12.048,5.561 z"
           inkscape:connector-curvature="0" />
        <path
           style="fill:#ffffff;fill-opacity:1;fill-rule:evenodd;stroke:#263742;stroke-width:0.60000001pt;stroke-linecap:butt;stroke-linejoin:miter;stroke-opacity:1"
           id="path1289"
           d="m 292.031,397.901 c -0.94,-0.568 6.389,-9.114 8.187,-8.187 2.625,2.608 -8.31,8.39 -8.187,8.187 z"
           inkscape:connector-curvature="0" />
        <path
           style="fill:#263742;fill-opacity:1;fill-rule:evenodd;stroke:#263742;stroke-width:0.60000001pt;stroke-linecap:butt;stroke-linejoin:miter;stroke-opacity:1"
           id="path1291"
           d="m 320.916,358.358 c -0.891,-0.737 -7.878,10.287 -6.333,11.431 0.929,0.695 6.731,-11.038 6.333,-11.431 z"
           inkscape:connector-curvature="0" />
        <ellipse
           transform="matrix(0.9253,0,0,0.933788,22.0283,24.352)"
           style="fill:#ffffff;fill-opacity:1;fill-rule:evenodd;stroke:#263742;stroke-width:0.60000001pt;stroke-linecap:butt;stroke-linejoin:miter;stroke-opacity:1"
           id="ellipse1293"
           ry="3.398196"
           rx="3.012037"
           cy="374.58655"
           cx="288.86475" />
        <path
           style="fill:#263742;fill-opacity:1;fill-rule:evenodd;stroke:#263742;stroke-width:0.60000001pt;stroke-linecap:butt;stroke-linejoin:miter;stroke-opacity:1"
           id="path1295"
           transform="translate(-8.0321,-1.54463)"
           d="m 320.916,358.358 c -0.441,-0.512 -2.781,11.368 -1.699,11.894 0.929,0.695 2.547,-11.276 1.699,-11.894 z"
           inkscape:connector-curvature="0" />
        <path
           transform="translate(-38.3069,14.983)"
           style="fill:#ffffff;fill-opacity:1;fill-rule:evenodd;stroke:#263742;stroke-width:0.60000001pt;stroke-linecap:butt;stroke-linejoin:miter;stroke-opacity:1"
           id="path1297"
           d="m 321.366,357.908 c -2.771,1.959 1.521,13.045 8.58,6.572 -5.546,0.163 -7.396,-1.461 -8.58,-6.572 z"
           inkscape:connector-curvature="0" />
      </g>
    </clipPath>
    <linearGradient
       gradientTransform="matrix(0.38636363,0,0,0.39999999,-194.57932,-109.81033)"
       gradientUnits="userSpaceOnUse"
       y2="-276"
       x2="115.99999"
       y1="-276"
       x1="27.99999"
       id="linearGradient1159-6"
       xlink:href="#linearGradient1250" />
    <linearGradient
       id="linearGradient1250">
      <stop
         id="stop1238"
         offset="0"
         style="stop-color:#bcc5ca;stop-opacity:1" />
      <stop
         style="stop-color:#ffffff;stop-opacity:1"
         offset="0.02941174"
         id="stop1240" />
      <stop
         style="stop-color:#d2d8dc;stop-opacity:1"
         offset="0.08823527"
         id="stop1242" />
      <stop
         style="stop-color:#d2d8dc;stop-opacity:1"
         offset="0.91176468"
         id="stop1244" />
      <stop
         id="stop1246"
         offset="0.97058821"
         style="stop-color:#ffffff;stop-opacity:1" />
      <stop
         id="stop1248"
         offset="1"
         style="stop-color:#bcc5ca;stop-opacity:1" />
    </linearGradient>
    <clipPath
       id="clipPath1609-7-1-4-7"
       clipPathUnits="userSpaceOnUse">
      <path
         inkscape:connector-curvature="0"
         style="fill:#e74747;stroke:none;stroke-width:0.25px;stroke-linecap:butt;stroke-linejoin:miter;stroke-opacity:1"
         d="m 252,116 28,-28 v -8 h -36 v 36 z"
         id="path1611-5-5-4-5" />
    </clipPath>
    <clipPath
       clipPathUnits="userSpaceOnUse"
       id="clipPath1176">
      <rect
         style="opacity:1;fill:#f1f3f5;fill-opacity:1;stroke:none;stroke-width:0.824684;stroke-linecap:round;stroke-linejoin:miter;stroke-miterlimit:4;stroke-dasharray:none;stroke-dashoffset:0;stroke-opacity:1;paint-order:normal"
         id="rect1178"
         width="14"
         height="5.0000114"
         x="18.761141"
         y="282.61035"
         rx="0"
         ry="0"
         transform="scale(-1)" />
    </clipPath>
  </defs>
  <metadata
     id="metadata4">
    <rdf:RDF>
      <cc:Work
         rdf:about="">
        <dc:format>image/svg+xml</dc:format>
        <dc:type
           rdf:resource="http://purl.org/dc/dcmitype/StillImage" />
        <dc:creator>
          <cc:Agent>
            <dc:title>GNOME Design Team</dc:title>
          </cc:Agent>
        </dc:creator>
        <dc:source />
        <cc:license
           rdf:resource="http://creativecommons.org/licenses/by-sa/4.0/" />
        <dc:title>Adwaita Icon Template</dc:title>
        <dc:subject>
          <rdf:Bag />
        </dc:subject>
        <dc:date />
        <dc:rights>
          <cc:Agent>
            <dc:title />
          </cc:Agent>
        </dc:rights>
        <dc:publisher>
          <cc:Agent>
            <dc:title />
          </cc:Agent>
        </dc:publisher>
        <dc:identifier />
        <dc:relation />
        <dc:language />
        <dc:coverage />
        <dc:description />
        <dc:contributor>
          <cc:Agent>
            <dc:title />
          </cc:Agent>
        </dc:contributor>
      </cc:Work>
      <cc:License
         rdf:about="http://creativecommons.org/licenses/by-sa/4.0/">
        <cc:permits
           rdf:resource="http://creativecommons.org/ns#Reproduction" />
        <cc:permits
           rdf:resource="http://creativecommons.org/ns#Distribution" />
        <cc:requires
           rdf:resource="http://creativecommons.org/ns#Notice" />
        <cc:requires
           rdf:resource="http://creativecommons.org/ns#Attribution" />
        <cc:permits
           rdf:resource="http://creativecommons.org/ns#DerivativeWorks" />
        <cc:requires
           rdf:resource="http://creativecommons.org/ns#ShareAlike" />
      </cc:License>
    </rdf:RDF>
  </metadata>
  <g
     id="layer1"
     style="display:inline;enable-background:new"
     transform="translate(0.2388601,-172.61034)">
    <g
       id="layer2"
       style="display:none">
      <g
         style="display:inline;enable-background:new"
         id="g9211">
        <rect
           y="172"
           x="9.2651362e-08"
           height="128"
           width="128"
           id="rect13805"
           style="display:inline;overflow:visible;visibility:visible;fill:#f0f0f0;fill-opacity:1;fill-rule:nonzero;stroke:none;stroke-width:0.5;marker:none;enable-background:accumulate" />
        <circle
           style="display:inline;opacity:0.1;vector-effect:none;fill:none;fill-opacity:1;stroke:#000000;stroke-width:0.99000001;stroke-linecap:butt;stroke-linejoin:miter;stroke-miterlimit:4;stroke-dasharray:0.99000001, 0.99000001;stroke-dashoffset:0;stroke-opacity:1;marker:none;marker-start:none;marker-mid:none;marker-end:none;paint-order:normal;enable-background:new"
           id="circle2892"
           r="59.504131"
           cy="236"
           cx="64.000031" />
        <rect
           style="display:inline;opacity:0.1;vector-effect:none;fill:none;fill-opacity:1;stroke:#000000;stroke-width:0.99000001;stroke-linecap:butt;stroke-linejoin:miter;stroke-miterlimit:4;stroke-dasharray:0.99000001, 0.99000001;stroke-dashoffset:0;stroke-opacity:1;marker:none;marker-start:none;marker-mid:none;marker-end:none;paint-order:normal;enable-background:new"
           id="rect2894"
           width="87.009987"
           height="111.01005"
           x="20.495007"
           y="180.49496"
           rx="8.701004"
           ry="7.9292889" />
        <rect
           style="display:inline;opacity:0.1;vector-effect:none;fill:none;fill-opacity:1;stroke:#000000;stroke-width:0.99000001;stroke-linecap:butt;stroke-linejoin:miter;stroke-miterlimit:4;stroke-dasharray:0.99000001, 0.99000001;stroke-dashoffset:0;stroke-opacity:1;marker:none;marker-start:none;marker-mid:none;marker-end:none;paint-order:normal;enable-background:new"
           id="rect2896"
           width="103.00952"
           height="103.00952"
           x="12.495266"
           y="184.49524"
           rx="7.9238095"
           ry="7.9238095" />
        <rect
           style="display:inline;opacity:0.1;vector-effect:none;fill:none;fill-opacity:1;stroke:#000000;stroke-width:0.99000001;stroke-linecap:butt;stroke-linejoin:miter;stroke-miterlimit:4;stroke-dasharray:0.99000001, 0.99000001;stroke-dashoffset:0;stroke-opacity:1;marker:none;marker-start:none;marker-mid:none;marker-end:none;paint-order:normal;enable-background:new"
           id="rect2898"
           width="111.01004"
           height="87.010048"
           x="8.4950066"
           y="200.49496"
           rx="7.9292889"
           ry="8.701005" />
        <path
           style="display:inline;fill:none;stroke:#62a0ea;stroke-width:2;stroke-linecap:butt;stroke-linejoin:miter;stroke-miterlimit:4;stroke-dasharray:none;stroke-opacity:1;enable-background:new"
           d="M 2.6203015e-5,288.99999 H 128.00003"
           id="path2900"
           inkscape:connector-curvature="0" />
      </g>
    </g>
    <g
       id="layer9"
       style="display:inline">
      <rect
         transform="scale(-1)"
         style="opacity:1;vector-effect:none;fill:#00aade;fill-opacity:1;stroke:none;stroke-width:13.71876526;stroke-linecap:butt;stroke-linejoin:miter;stroke-miterlimit:4;stroke-dasharray:none;stroke-dashoffset:0;stroke-opacity:1;marker:none;marker-start:none;marker-mid:none;marker-end:none;paint-order:normal"
         id="rect1167"
         width="88"
         height="30.25"
         x="-107.76114"
         y="-292.61035"
         rx="8"
         ry="8"
         clip-path="none" />
      <g
         style="display:inline;enable-background:new"
         id="g8005"
         clip-path="url(#clipPath2213)"
         transform="matrix(0.25,0,0,0.25,-374,202.04808)" />
      <g
         style="display:inline;enable-background:new"
         id="g8015"
         clip-path="url(#clipPath2213)"
         transform="matrix(0.25,0,0,0.25,-424,202.04808)" />
      <g
         style="display:inline;enable-background:new"
         id="g8025"
         clip-path="url(#clipPath2213)"
         transform="matrix(0.25,0,0,0.25,-414,202.04808)" />
      <g
         style="display:inline;enable-background:new"
         id="g8035"
         clip-path="url(#clipPath2213)"
         transform="matrix(0.25,0,0,0.25,-404,202.04808)" />
      <g
         style="display:inline;enable-background:new"
         id="g8045"
         clip-path="url(#clipPath2213)"
         transform="matrix(0.25,0,0,0.25,-394,202.04808)" />
      <g
         style="display:inline;enable-background:new"
         id="g8055"
         clip-path="url(#clipPath2213)"
         transform="matrix(0.25,0,0,0.25,-384,202.04808)" />
      <rect
         clip-path="none"
         ry="8"
         rx="8"
         y="-288.61035"
         x="-107.76114"
         height="40"
         width="88"
         id="rect1151"
         style="opacity:1;vector-effect:none;fill:url(#linearGradient1159);fill-opacity:1;stroke:none;stroke-width:13.71876526;stroke-linecap:butt;stroke-linejoin:miter;stroke-miterlimit:4;stroke-dasharray:none;stroke-dashoffset:0;stroke-opacity:1;marker:none;marker-start:none;marker-mid:none;marker-end:none;paint-order:normal"
         transform="scale(-1)" />
      <rect
         transform="scale(-1)"
         style="opacity:1;vector-effect:none;fill:#f1f3f5;fill-opacity:1;stroke:none;stroke-width:13.20088768;stroke-linecap:butt;stroke-linejoin:miter;stroke-miterlimit:4;stroke-dasharray:none;stroke-dashoffset:0;stroke-opacity:1;marker:none;marker-start:none;marker-mid:none;marker-end:none;paint-order:normal"
         id="rect1161"
         width="88"
         height="100"
         x="-107.76114"
         y="-284.61035"
         rx="8"
         ry="7.4074078"
         clip-path="none" />
      <rect
         inkscape:label="256x256"
         y="936.20642"
         x="252.64383"
         height="512"
         width="512"
         id="rect15489"
         style="display:inline;overflow:visible;visibility:visible;fill:#eeeeec;fill-opacity:1;fill-rule:nonzero;stroke:none;stroke-width:2;marker:none;enable-background:accumulate" />
      <rect
         y="1047.7064"
         x="380.14383"
         height="20"
         width="161.5"
         id="rect15687"
         style="display:inline;opacity:1;vector-effect:none;fill:#d5d3cf;fill-opacity:1;stroke:none;stroke-width:0.5;stroke-linecap:butt;stroke-linejoin:round;stroke-miterlimit:4;stroke-dasharray:none;stroke-dashoffset:0;stroke-opacity:1;marker:none;enable-background:new" />
      <rect
         style="display:inline;opacity:1;vector-effect:none;fill:#d5d3cf;fill-opacity:1;stroke:none;stroke-width:0.5;stroke-linecap:butt;stroke-linejoin:round;stroke-miterlimit:4;stroke-dasharray:none;stroke-dashoffset:0;stroke-opacity:1;marker:none;enable-background:new"
         id="rect15689"
         width="161.5"
         height="20"
         x="381.14383"
         y="1087.2064" />
      <rect
         y="1127.2064"
         x="381.14383"
         height="20"
         width="250.5"
         id="rect15691"
         style="display:inline;opacity:1;vector-effect:none;fill:#d5d3cf;fill-opacity:1;stroke:none;stroke-width:0.5;stroke-linecap:butt;stroke-linejoin:round;stroke-miterlimit:4;stroke-dasharray:none;stroke-dashoffset:0;stroke-opacity:1;marker:none;enable-background:new" />
      <rect
         style="display:inline;opacity:1;vector-effect:none;fill:#d5d3cf;fill-opacity:1;stroke:none;stroke-width:0.5;stroke-linecap:butt;stroke-linejoin:round;stroke-miterlimit:4;stroke-dasharray:none;stroke-dashoffset:0;stroke-opacity:1;marker:none;enable-background:new"
         id="rect15693"
         width="250.5"
         height="20"
         x="381.14383"
         y="1167.2064" />
      <rect
         y="1207.2064"
         x="381.14383"
         height="20"
         width="250.5"
         id="rect15695"
         style="display:inline;opacity:1;vector-effect:none;fill:#d5d3cf;fill-opacity:1;stroke:none;stroke-width:0.5;stroke-linecap:butt;stroke-linejoin:round;stroke-miterlimit:4;stroke-dasharray:none;stroke-dashoffset:0;stroke-opacity:1;marker:none;enable-background:new" />
      <rect
         style="display:inline;opacity:1;vector-effect:none;fill:#d5d3cf;fill-opacity:1;stroke:none;stroke-width:0.5;stroke-linecap:butt;stroke-linejoin:round;stroke-miterlimit:4;stroke-dasharray:none;stroke-dashoffset:0;stroke-opacity:1;marker:none;enable-background:new"
         id="rect15697"
         width="250.5"
         height="20"
         x="381.14383"
         y="1247.2064" />
      <rect
         y="1287.2064"
         x="381.14383"
         height="20"
         width="250.5"
         id="rect15699"
         style="display:inline;opacity:1;vector-effect:none;fill:#d5d3cf;fill-opacity:1;stroke:none;stroke-width:0.5;stroke-linecap:butt;stroke-linejoin:round;stroke-miterlimit:4;stroke-dasharray:none;stroke-dashoffset:0;stroke-opacity:1;marker:none;enable-background:new" />
      <rect
         style="display:inline;opacity:1;vector-effect:none;fill:#d5d3cf;fill-opacity:1;stroke:none;stroke-width:0.5;stroke-linecap:butt;stroke-linejoin:round;stroke-miterlimit:4;stroke-dasharray:none;stroke-dashoffset:0;stroke-opacity:1;marker:none;enable-background:new"
         id="rect15701"
         width="250.5"
         height="20"
         x="381.14383"
         y="1327.2064" />
      <rect
         transform="scale(-1)"
         style="display:inline;opacity:1;vector-effect:none;fill:#00aade;fill-opacity:1;stroke:none;stroke-width:4.17448616;stroke-linecap:butt;stroke-linejoin:miter;stroke-miterlimit:4;stroke-dasharray:none;stroke-dashoffset:0;stroke-opacity:1;marker:none;marker-start:none;marker-mid:none;marker-end:none;paint-order:normal;enable-background:new"
         id="rect1161-3"
         width="88"
         height="9.9999962"
         x="-107.76114"
         y="-202.61034"
         rx="0"
         ry="0"
         clip-path="none" />
      <rect
         transform="scale(-1)"
         style="display:inline;opacity:1;vector-effect:none;fill:#006888;fill-opacity:1;stroke:none;stroke-width:2.90715504;stroke-linecap:butt;stroke-linejoin:miter;stroke-miterlimit:4;stroke-dasharray:none;stroke-dashoffset:0;stroke-opacity:1;marker:none;marker-start:none;marker-mid:none;marker-end:none;paint-order:normal;enable-background:new"
         id="rect1161-3-3-7"
         width="88"
         height="4.8498716"
         x="-107.76114"
         y="-206.37242"
         rx="2.000001"
         ry="2.4249358"
         clip-path="none" />
      <rect
         transform="scale(-1)"
         style="display:inline;opacity:1;vector-effect:none;fill:#00aade;fill-opacity:1;stroke:none;stroke-width:2.73747468;stroke-linecap:butt;stroke-linejoin:miter;stroke-miterlimit:4;stroke-dasharray:none;stroke-dashoffset:0;stroke-opacity:1;marker:none;marker-start:none;marker-mid:none;marker-end:none;paint-order:normal;enable-background:new"
         id="rect1161-3-3"
         width="88"
         height="4.3002539"
         x="-107.76114"
         y="-204.61034"
         rx="2.000001"
         ry="2.1501269"
         clip-path="none" />
      <rect
         transform="scale(-1)"
         style="display:inline;opacity:1;vector-effect:none;fill:#00aade;fill-opacity:1;stroke:none;stroke-width:5.2803545;stroke-linecap:butt;stroke-linejoin:miter;stroke-miterlimit:4;stroke-dasharray:none;stroke-dashoffset:0;stroke-opacity:1;marker:none;marker-start:none;marker-mid:none;marker-end:none;paint-order:normal;enable-background:new"
         id="rect1161-3-3-35"
         width="88"
         height="16.000002"
         x="-107.76114"
         y="-200.61034"
         rx="8.000001"
         ry="8.000001"
         clip-path="none" />
      <g
         transform="matrix(0,-1.3300722,1.3300722,0,-244.23389,322.78647)"
         id="g2002"
         style="display:inline;enable-background:new">
        <path
           inkscape:connector-curvature="0"
           id="path1984"
           d="m 32.07754,208.18782 1.719,6.87525 2.523915,10.09569 40.499533,39.48479 v 0 h 6.014711 12.781261 l 3.759194,0 c 0,0 -0.643691,-0.68538 0.751836,-0.75184 0,-0.53163 -51.078495,-51.46098 -51.078495,-51.46098 L 38.89786,209.8929 Z"
           style="display:inline;opacity:0.1;vector-effect:none;fill:#000000;fill-opacity:1;stroke:none;stroke-width:9;stroke-linecap:round;stroke-linejoin:miter;stroke-miterlimit:4;stroke-dasharray:none;stroke-dashoffset:0;stroke-opacity:1;marker:none;marker-start:none;marker-mid:none;marker-end:none;paint-order:normal;enable-background:new"
           sodipodi:nodetypes="cccccccccccc" />
        <g
           id="g2000"
           transform="matrix(0.37132999,0,0,0.37132999,-111.40828,261.79112)"
           style="display:inline;enable-background:new">
          <g
             transform="matrix(0.49999993,0.70710678,-0.49999993,0.70710678,318.00002,-184.81833)"
             id="g1998"
             style="display:inline;stroke-width:1.1892072;enable-background:new">
            <g
               style="stroke-width:1.1892072"
               id="g1988"
               transform="matrix(0.95710691,-0.75000004,0.75000005,0.45710668,46.143255,123.91498)">
              <path
                 sodipodi:nodetypes="cccc"
                 inkscape:connector-curvature="0"
                 id="path1986"
                 d="m 147.71569,-128.28431 52.28428,4.28427 -48.00001,48.000006 z"
                 style="opacity:1;vector-effect:none;fill:url(#linearGradient2006);fill-opacity:1;stroke:none;stroke-width:28.54097176;stroke-linecap:round;stroke-linejoin:miter;stroke-miterlimit:4;stroke-dasharray:none;stroke-dashoffset:0;stroke-opacity:1;marker:none;marker-start:none;marker-mid:none;marker-end:none;paint-order:normal" />
            </g>
            <path
               sodipodi:nodetypes="cccc"
               inkscape:connector-curvature="0"
               id="path1990"
               d="m 91.30972,-45.511411 21.40227,-14.972131 -3.85584,23.352172 z"
               style="display:inline;opacity:1;vector-effect:none;fill:#263742;fill-opacity:1;stroke:none;stroke-width:28.54097176;stroke-linecap:round;stroke-linejoin:miter;stroke-miterlimit:4;stroke-dasharray:none;stroke-dashoffset:0;stroke-opacity:1;marker:none;marker-start:none;marker-mid:none;marker-end:none;paint-order:normal;enable-background:new" />
            <path
               sodipodi:nodetypes="ccccc"
               inkscape:connector-curvature="0"
               id="path1992"
               d="m 134.62346,-24.825129 9.94113,-57.941124 236.48137,-39.745377 -9.94113,57.941123 z"
               style="display:inline;fill:#f9da02;fill-opacity:1;stroke:none;stroke-width:1.15728009px;stroke-linecap:butt;stroke-linejoin:miter;stroke-opacity:1;enable-background:new" />
            <path
               sodipodi:nodetypes="ccccc"
               inkscape:connector-curvature="0"
               id="path1994"
               d="m 141.25089,-63.452545 3.31368,-19.313711 236.65538,-39.775224 -3.4877,19.34356 z"
               style="display:inline;fill:#fbeb83;fill-opacity:1;stroke:none;stroke-width:0.81832051px;stroke-linecap:butt;stroke-linejoin:miter;stroke-opacity:1;enable-background:new" />
            <path
               sodipodi:nodetypes="ccccc"
               inkscape:connector-curvature="0"
               id="path1996"
               d="m 137.93717,-44.138836 -3.31373,19.313711 236.65538,-39.775235 3.13972,-19.283855 z"
               style="display:inline;fill:#dcb102;fill-opacity:1;stroke:none;stroke-width:0.81832051px;stroke-linecap:butt;stroke-linejoin:miter;stroke-opacity:1;enable-background:new" />
          </g>
        </g>
      </g>
      <g
         style="display:inline;fill:#000000;fill-opacity:0.5;stroke:none;enable-background:new"
         id="g23-0"
         transform="matrix(0.18560322,0,0,0.18560322,16.888097,122.67104)">
        <path
           style="fill:#020202;fill-opacity:1;fill-rule:evenodd;stroke:#000002;stroke-width:0.99788645pt;stroke-linecap:butt;stroke-linejoin:miter;stroke-opacity:1"
           id="path14-9"
           d="m 144.97863,347.29398 c 0.53686,-0.0898 13.92351,6.97623 22.92145,9.41806 16.04501,4.10031 30.69099,16.44117 37.77,23.53016 0.52489,0.60671 6.08012,-4.15919 11.89381,-3.81592 7.94118,0.48098 32.51314,7.39035 35.79618,2.68531 1.99079,-2.76215 1.84809,-6.15097 4.33183,-7.53903 1.33717,-0.37421 -4.97047,-11.91077 1.73333,-15.60694 4.77987,-2.38894 8.83029,10.98573 10.05769,12.48455 0.54984,0.67058 3.46666,0.83424 3.12139,-0.69353 -0.3742,-1.65948 -5.09221,-14.4933 0.69353,-16.64674 9.3971,-3.72112 7.73163,16.42122 7.97611,16.99401 0.5199,1.21941 32.72768,2.15942 34.68055,16.64674 1.1296,7.97311 -25.80335,18.27829 -28.43777,20.1144 -2.63342,1.83611 -2.41389,4.77289 -1.38706,6.59004 1.1805,1.97082 9.02688,8.62274 7.9771,11.79102 -0.72147,1.83013 -15.36546,-4.87766 -16.30048,-3.46765 -2.13248,2.69329 10.66043,9.43502 6.24278,14.21888 -1.75129,1.14558 -21.90061,-8.43613 -21.84972,-8.32337 -0.54085,0.20557 -28.4717,5.1022 -49.94022,-1.38806 -0.7564,-0.21355 -13.77882,12.57936 -15.25968,12.13929 -2.02472,-0.74243 2.98467,-11.12643 2.42785,-13.17909 -0.91007,-1.14357 -9.23144,4.64317 -9.71043,1.73433 -0.57279,-3.8229 7.30253,-8.21759 6.93631,-10.75123 -2.0307,-14.39351 0.90708,-22.79871 5.89551,-29.82483 1.66348,-2.58652 -19.55059,-18.60659 -34.90906,-24.9292 -15.35747,-6.32261 -23.57407,-11.68126 -22.661,-12.1812 z"
           inkscape:connector-curvature="0" />
        <path
           style="fill:#020202;fill-opacity:1;fill-rule:evenodd;stroke:#000000;stroke-width:0.60000001pt;stroke-linecap:butt;stroke-linejoin:miter;stroke-opacity:1"
           id="path13-0"
           d="m 320.916,358.358 c -0.891,-0.737 -7.878,10.287 -6.333,11.431 0.929,0.695 6.731,-11.038 6.333,-11.431 z"
           inkscape:connector-curvature="0" />
        <path
           style="fill:#020202;fill-opacity:1;fill-rule:evenodd;stroke:#000000;stroke-width:0.60000001pt;stroke-linecap:butt;stroke-linejoin:miter;stroke-opacity:1"
           id="path18-2"
           transform="translate(-8.0321,-1.54463)"
           d="m 320.916,358.358 c -0.441,-0.512 -2.781,11.368 -1.699,11.894 0.929,0.695 2.547,-11.276 1.699,-11.894 z"
           inkscape:connector-curvature="0" />
      </g>
      <rect
         clip-path="url(#clipPath1609-7-1-4)"
         transform="matrix(0,0.71428571,0.71428571,0,24.903997,84.610341)"
         ry="11.2"
         rx="11.2"
         y="88"
         x="252"
         height="36"
         width="36"
         id="rect1056-3-8-4"
         style="display:inline;opacity:1;fill:url(#linearGradient1665);fill-opacity:1;stroke:none;stroke-width:0.5;stroke-linecap:butt;stroke-linejoin:miter;stroke-miterlimit:4;stroke-dasharray:none;stroke-dashoffset:0;stroke-opacity:1;marker:none;marker-start:none;marker-mid:none;marker-end:none;paint-order:normal;enable-background:new" />
    </g>
  </g>
</svg>
